{"items": [{"id": 2089452479, "title": "Jordan 1 unc ", "price": "70.0", "discount": null, "currency": "EUR", "brand_title": "Jordan", "is_for_swap": true, "user": {"id": 17136977, "login": "mehdielashrey", "business": false, "profile_url": "https://www.vinted.fr/member/17136977-mehdielashrey", "photo": {"id": 88062573, "width": 442, "height": 800, "temp_uuid": null, "url": "https://images1.vinted.net/t/01_00816_V39nLLLZDaqL4qZniiJ9QWt8/f800/1651071479.jpeg?s=6010631187bb86060b375e3cdaa4189c2e09345b", "dominant_color": "#31abc2", "dominant_color_opaque": "#C1E6ED", "thumbnails": [{"type": "thumb310", "url": "https://images1.vinted.net/t/01_00816_V39nLLLZDaqL4qZniiJ9QWt8/310x310/1651071479.jpeg?s=666e97fa84cf373d097141b832d1b9ba22673776", "width": 310, "height": 310, "original_size": null}, {"type": "thumb150", "url": "https://images1.vinted.net/t/01_00816_V39nLLLZDaqL4qZniiJ9QWt8/150x150/1651071479.jpeg?s=d33d04aa1da42afee6a9d4fe6227d18d27982f07", "width": 150, "height": 150, "original_size": null}, {"type": "thumb100", "url": "https://images1.vinted.net/t/01_00816_V39nLLLZDaqL4qZniiJ9QWt8/100x100/1651071479.jpeg?s=dd21b585ca0cc4d7a68cc68eea7da2ce4af03d60", "width": 100, "height": 100, "original_size": null}, {"type": "thumb50", "url": "https://images1.vinted.net/t/01_00816_V39nLLLZDaqL4qZniiJ9QWt8/50x50/1651071479.jpeg?s=2cabe4937d403a30878bd1f06220ab7ceb60ce65", "width": 50, "height": 50, "original_size": null}, {"type": "thumb20", "url": "https://images1.vinted.net/t/01_00816_V39nLLLZDaqL4qZniiJ9QWt8/20x20/1651071479.jpeg?s=e1a3986ac9addc8bb960b1e50e458da0083ae79c", "width": 20, "height": 20, "original_size": null}], "is_suspicious": false, "orientation": null, "reaction": null, "high_resolution": {"id": "01_00816_V39nLLLZDaqL4qZniiJ9QWt8", "timestamp": 1651071479, "orientation": null}, "full_size_url": "https://images1.vinted.net/t/01_00816_V39nLLLZDaqL4qZniiJ9QWt8/1651071479.jpeg?s=aeba86af03395a0c31f84d7b6b73681840c3057b", "is_hidden": false, "extra": {}}}, "url": "https://www.vinted.fr/hommes/chaussures/baskets/2089452479-jordan-1-unc", "promoted": false, "photo": {"id": 8083092093, "image_no": 1, "width": 600, "height": 800, "dominant_color": "#4F585F", "dominant_color_opaque": "#CACDCF", "url": "https://images1.vinted.net/t/02_00829_WuC6DmdTnoUpCq5F9HTeQTF3/f800/1659917906.jpeg?s=0c193e7b39579afc2599316ea90ace569130a7b3", "is_main": true, "thumbnails": [{"type": "thumb70x100", "url": "https://images1.vinted.net/t/02_00829_WuC6DmdTnoUpCq5F9HTeQTF3/70x100/1659917906.jpeg?s=6ab7126e2c6d72c3fcb4bbb26231b8a0a0454ded", "width": 70, "height": 100, "original_size": null}, {"type": "thumb150x210", "url": "https://images1.vinted.net/t/02_00829_WuC6DmdTnoUpCq5F9HTeQTF3/150x210/1659917906.jpeg?s=6ec2c88b6bc9e3221b62c437a3f03d8303e2686e", "width": 150, "height": 210, "original_size": null}, {"type": "thumb310x430", "url": "https://images1.vinted.net/t/02_00829_WuC6DmdTnoUpCq5F9HTeQTF3/310x430/1659917906.jpeg?s=defba47ebf62e0217b05a5b2bb29a72366b50342", "width": 310, "height": 430, "original_size": null}, {"type": "thumb428x624", "url": "https://images1.vinted.net/t/02_00829_WuC6DmdTnoUpCq5F9HTeQTF3/f800/1659917906.jpeg?s=0c193e7b39579afc2599316ea90ace569130a7b3", "width": 321, "height": 428, "original_size": true}, {"type": "thumb624x428", "url": "https://images1.vinted.net/t/02_00829_WuC6DmdTnoUpCq5F9HTeQTF3/f800/1659917906.jpeg?s=0c193e7b39579afc2599316ea90ace569130a7b3", "width": 468, "height": 624, "original_size": true}, {"type": "thumb364x428", "url": "https://images1.vinted.net/t/02_00829_WuC6DmdTnoUpCq5F9HTeQTF3/f800/1659917906.jpeg?s=0c193e7b39579afc2599316ea90ace569130a7b3", "width": 273, "height": 364, "original_size": true}], "high_resolution": {"id": "02_00829_WuC6DmdTnoUpCq5F9HTeQTF3", "timestamp": 1659917906, "orientation": null}, "is_suspicious": false, "full_size_url": "https://images1.vinted.net/t/02_00829_WuC6DmdTnoUpCq5F9HTeQTF3/1659917906.jpeg?s=5b09f6569c6756af02dcb622448ad3646c50c653", "is_hidden": false, "extra": {}}, "favourite_count": 2, "is_favourite": false, "favourite_group_id": null, "badge": null, "conversion": null, "service_fee": null, "total_item_price": "70.0", "view_count": 0, "size_title": "41", "content_source": "search", "search_tracking_params": {"buyer_item_distance_km": null, "score": null, "matched_queries": ["next_search", "full_text_search", "interpretation_0"]}}], "dominant_brand": {"id": 2703, "title": "Jordan", "slug": "jordan", "favourite_count": 275632, "pretty_favourite_count": "275.6K", "item_count": 866311, "pretty_item_count": "866.3K", "is_visible_in_listings": true, "path": "/brand/jordan", "requires_authenticity_check": true, "is_luxury": true, "url": "https://www.vinted.fr/brand/jordan", "is_favourite": false}, "search_tracking_params": {"search_correlation_id": "c8a1b5e1-91e3-4a6e-b0c5-f30f485a3be4", "search_session_id": "767f52c9-a2d7-4da7-905b-d8287431fd37", "global_search_session_id": "850d76a0-c1ce-4b8a-a964-dd18a9f73d8e"}, "pagination": {"current_page": 1, "total_pages": 3000, "total_entries": 3000, "per_page": 1, "time": 1659918641}, "code": 0}